1,1,1,1,1,1,1,1,1,1,
1,6,3,1,3,3,0,0,0,1,
1,3,1,3,3,2,1,2,0,1,
1,3,2,3,2,3,2,0,0,1,
1,0,3,1,3,2,0,1,1,1,
1,0,3,3,2,3,2,1,6,1,
1,3,3,1,3,2,1,1,1,1,
1,3,1,3,3,3,0,2,0,1,
1,6,3,3,3,3,3,0,0,1,
1,1,1,1,1,1,1,1,1,1